[
	{
		"key":          "def",
		"width":        2000,
		"sizes":        {
			"def":   80,
			"med":   60,
			"small": 50
		},
		"target":       "kirin.cyanprint",
		"input":        "../dist/pages/",
		"bucket":       {
			"provider":   "aws",
			"check-hash": true,
			"public":     true,
			"get-cors":   ["*"],
			"prepend":    "pages"
		},
		"compressions": {
			"pngQuant":      {
				"speed":       11,
				"bit":         256,
				"min-quality": 65,
				"max-quality": 80
			},
			"jpegOptim":     {
				"quality":     75,
				"strip":       true,
				"progressive": true
			},
			"useless-field": true
		}
	}
]
